2 Bayesian basics 2 – Advanced Quantitative Methods for Linguistic Data
…
(I will suppress output/messages/warnings from brms fits from now on, unless they’re relevant for us.)

Practical note

The file argument here saves the fitted model to a file. If the file exists already, brm() just loads the model instead of refitting. This makes it easier for me to write/compile this document, and it’s good practice to use the file argument once you are fitting “real” models (to make sure you don’t lose them once fitted). If you want to refit the model, you then need to delete the corresponding .brm file first. You (reader) can either remove this argument or create a models/ directory.

Extract posterior samples using spread_draws() from tidybayes:

diatones_m31_draws <- diatones_m31 %>% spread_draws(b_Intercept)

spread_draws(a) puts the samples (“draws” from the posterior) for parameter(s) a in a tibble in tidy format for subsequent processing or plotting, with many pre-coded routines available (see vignette). diatones_m31_draws has one row for each post-warmup draw (= 4000 rows):

diatones_m31_draws
## # A tibble: 4,000 × 4
##    .chain .iteration .draw b_Intercept
##     <int>      <int> <int>       <dbl>
##  1      1          1     1       0.225
##  2      1          2     2       0.348
##  3      1          3     3       0.366
##  4      1          4     4       0.154
##  5      1          5     5       0.426
##  6      1          6     6       0.248
##  7      1          7     7       0.349
##  8      1          8     8       0.298
##  9      1          9     9       0.373
## 10      1         10    10       0.373
## # ℹ 3,990 more rows
…
To fit this model in brms:

dyads_m31 <-
  brm(data = dyads,
      gestures ~ 1,
      family = poisson,
      prior = prior(normal(0, 10), class='Intercept'),
      file='models/dyads_m31.brm'
  )

Let’s extract posterior samples using spread_draws() from tidybayes:

dyads_m31 %>% spread_draws(b_Intercept) -> dyads_m31_draws
dyads_m31_draws
## # A tibble: 4,000 × 4
##    .chain .iteration .draw b_Intercept
##     <int>      <int> <int>       <dbl>
##  1      1          1     1        3.88
##  2      1          2     2        3.89
##  3      1          3     3        3.89
##  4      1          4     4        3.92
##  5      1          5     5        3.93
##  6      1          6     6        3.88
##  7      1          7     7        3.91
##  8      1          8     8        3.87
##  9      1          9     9        3.88
## 10      1         10    10        3.89
## # ℹ 3,990 more rows
…
