5 Bayesian Hierarchical Models 1 – Advanced Quantitative Methods for Linguistic Data
…
Note that the posteriors for individual random effects look different from what we’re used to—many don’t look normal, and several look highly skewed. This is fine, and in fact makes sense: there is no reason these parameters need to have normal posterior distributions, and it is expected that some posteriors will be skewed, which is an effect of “partial pooling”.

Exercise 5.1 This code gets draws from the posterior of the predicted log-odds of shifted_stress for words with prefix de, as column pred_logit:

diatones_m81 %>%
  spread_draws(`r_prefix[de,Intercept]`, b_Intercept) %>%
  mutate(pred_logit = `r_prefix[de,Intercept]` + b_Intercept)
## # A tibble: 4,000 × 6
##    .chain .iteration .draw `r_prefix[de,Intercept]` b_Intercept pred_logit
##     <int>      <int> <int>                    <dbl>       <dbl>      <dbl>
##  1      1          1     1                  -0.129       -1.46      -1.59 
##  2      1          2     2                  -0.749       -1.59      -2.34 
##  3      1          3     3                   0.0717      -1.49      -1.42 
##  4      1          4     4                  -0.528       -1.31      -1.84 
##  5      1          5     5                   0.380       -1.18      -0.800
##  6      1          6     6                  -0.590       -1.77      -2.36 
##  7      1          7     7                  -3.71        -1.00      -4.72 
##  8      1          8     8                  -0.353       -0.800     -1.15 
##  9      1          9     9                  -1.14        -0.909     -2.05 
## 10      1         10    10                  -0.385       -1.12      -1.50 
## # ℹ 3,990 more rows
…
